{
    "defaultSeverity": "error",
    "extends": ["angular-tslint-rules", "tslint-config-prettier"],
    "rules": {
        "no-null-keyword": false,
        "no-unbound-method": false,
        "no-implicit-dependencies": [true, "dev"],
        "no-import-side-effect": [true, {"ignore-module": "jasmine"}],


        /* Obligated Codelyzer rules */
        "component-class-suffix": false,
        "component-max-inline-declarations": false,
        "component-selector": false,
        "contextual-lifecycle": false,
        "directive-class-suffix": false,
        "directive-selector": false,
        "no-attribute-decorator": false,
        "no-conflicting-lifecycle": false,
        "no-forward-ref": false,
        "no-host-metadata-property": false,
        "no-input-rename": false,
        "no-inputs-metadata-property": false,
        "no-lifecycle-call": false,
        "no-output-native": false,
        "no-output-on-prefix": false,
        "no-output-rename": false,
        "no-outputs-metadata-property": false,
        "no-pipe-impure": false,
        "no-queries-metadata-property": false,
        "no-unused-css": false,
        "prefer-inline-decorator": false,
        "prefer-output-readonly": false,
        "template-banana-in-box": false,
        "template-conditional-complexity": false,
        "template-cyclomatic-complexity": false,
        "template-i18n": false,
        "template-no-negated-async": false,
        "template-use-track-by-function": false,
        "use-component-selector": false,
        "use-component-view-encapsulation": false,
        "use-lifecycle-interface": false,
        "use-pipe-transform-interface": false,
        "contextual-decorator": false,
        "template-no-call-expression": false,
        "use-pipe-decorator": false
    }
}
